…
    ## [1] "C:/Users/18088/OneDrive/Desktop/Repositories/Greene/Week_13/data/cond_data/011521_CT316_1pcal.csv"
    ## [2] "C:/Users/18088/OneDrive/Desktop/Repositories/Greene/Week_13/data/cond_data/011621_CT316_1pcal.csv"
    ## [3] "C:/Users/18088/OneDrive/Desktop/Repositories/Greene/Week_13/data/cond_data/011721_CT354_1pcal.csv"

``` r
# read in the files  

data<-files %>%
  set_names()%>% # set's the id of each list to the file name
  map_df(read_csv,.id = "filename") # map everything to a dataframe and put the id in a column called filename
data
```

    ## # A tibble: 3,352 × 4
    ##    filename                             date                Temperature Salinity
    ##    <chr>                                <dttm>                    <dbl>    <dbl>
    ##  1 C:/Users/18088/OneDrive/Desktop/Rep… 2021-01-15 08:24:40        23.3     34.8
    ##  2 C:/Users/18088/OneDrive/Desktop/Rep… 2021-01-15 08:24:50        23.3     34.6
    ##  3 C:/Users/18088/OneDrive/Desktop/Rep… 2021-01-15 08:25:00        23.3     34.9
    ##  4 C:/Users/18088/OneDrive/Desktop/Rep… 2021-01-15 08:25:10        23.3     34.7
    ##  5 C:/Users/18088/OneDrive/Desktop/Rep… 2021-01-15 08:25:20        23.3     34.5
    ##  6 C:/Users/18088/OneDrive/Desktop/Rep… 2021-01-15 08:25:30        23.3     34.4
    ##  7 C:/Users/18088/OneDrive/Desktop/Rep… 2021-01-15 08:25:40        23.3     34.3
    ##  8 C:/Users/18088/OneDrive/Desktop/Rep… 2021-01-15 08:25:50        23.3     34.3
    ##  9 C:/Users/18088/OneDrive/Desktop/Rep… 2021-01-15 08:26:00        23.3     34.2
    ## 10 C:/Users/18088/OneDrive/Desktop/Rep… 2021-01-15 08:26:10        23.3     34.1
    ## # ℹ 3,342 more rows
…
