…
``` r
# how many species?
starwars %>% 
  filter(!is.na(species)) %>% # get rid of the NAs
  count(species, sort = TRUE)
```

    ## # A tibble: 37 × 2
    ##    species      n
    ##    <chr>    <int>
    ##  1 Human       35
    ##  2 Droid        6
    ##  3 Gungan       3
    ##  4 Kaminoan     2
    ##  5 Mirialan     2
    ##  6 Twi'lek      2
    ##  7 Wookiee      2
    ##  8 Zabrak       2
    ##  9 Aleena       1
    ## 10 Besalisk     1
    ## # ℹ 27 more rows
…
``` r
# convert characters to factors!

join_clean %>% # data set
  mutate(site = fct_lump(site)) %>% # an attempt to make site characters into factors
  mutate(quadrat = fct_lump(quadrat)) # an attempt to make quadrat characters into factors
```

    ## # A tibble: 450 × 14
    ##    site        latitude transect quadrat bare_rock algae mussels small_barnacles
    ##    <fct>          <dbl>    <dbl> <fct>       <dbl> <dbl>   <dbl>           <dbl>
    ##  1 Starfish P…     47.7        1 Low             0    90       0               0
    ##  2 Starfish P…     47.7        1 Mid             0     0      90              75
    ##  3 Starfish P…     47.7        1 High            3     0       1              95
    ##  4 Starfish P…     47.7        2 Low            30    40       0               0
    ##  5 Starfish P…     47.7        2 Mid            10     0       5               2
    ##  6 Starfish P…     47.7        2 High           15     3       0              85
    ##  7 Starfish P…     47.7        3 Low             0    80       0              20
    ##  8 Starfish P…     47.7        3 Mid            10     0       5              30
    ##  9 Starfish P…     47.7        3 High            5     5       1              95
    ## 10 Starfish P…     47.7        4 Low            30    70       0               0
    ## # ℹ 440 more rows
    ## # ℹ 6 more variables: large_barnacles <dbl>, gooseneck_barnacles <dbl>,
    ## #   anemone <dbl>, whelks_counts <dbl>, crabs_counts <dbl>, stars_counts <dbl>
…
